2020-06-15 13:07:49.998057---->Sensor humedad: Valor optimo = 7.
2020-06-15 13:09:01.479353---->Motor: Status = ON.
2020-06-15 13:09:21.361261---->Motor: Status = OFF.
2020-06-15 13:10:00.079591---->Motor: Status = OFF.
2020-06-15 13:15:31.095375---->Valvula: Status = ON.
2020-06-15 13:15:55.330755---->Valvula: Status = OFF.
2020-06-15 17:24:52.955126---->Motor: Status = ON.
2020-06-15 17:24:55.193933---->Motor: Status = OFF.
2020-06-15 17:26:16.451002---->Motor: Status = ON.
2020-06-15 17:26:18.332312---->Motor: Status = OFF.
2020-06-15 17:40:21.063540---->Valvula: Status = ON.
2020-06-15 17:42:20.030549---->Valvula: Tiempo encendido = 5.
2020-06-15 17:42:24.962923---->Valvula: Tiempo encendido = 5.
2020-06-15 17:42:40.259361---->Valvula: Status = ON.
2020-06-15 17:42:54.833750---->Valvula: Status = ON.
